{
  "project_info": {
    "project_number": "645580871525",
    "project_id": "fir-intro2-e4238",
    "storage_bucket": "fir-intro2-e4238.appspot.com"
  },
  "client": [
    {
      "client_info": {
        "mobilesdk_app_id": "1:645580871525:android:8c7345e7cf374d8b25738c",
        "android_client_info": {
          "package_name": "mx.edu.delasalle.firebaseintro2"
        }
      },
      "oauth_client": [
        {
          "client_id": "645580871525-p9ktfgiqjqcto7flmpk9d2caonuce315.apps.googleusercontent.com",
          "client_type": 3
        }
      ],
      "api_key": [
        {
          "current_key": "AIzaSyDycKfMVnLRABj8SYr1SBCvJ00myWyTVg0"
        }
      ],
      "services": {
        "appinvite_service": {
          "other_platform_oauth_client": [
            {
              "client_id": "645580871525-p9ktfgiqjqcto7flmpk9d2caonuce315.apps.googleusercontent.com",
              "client_type": 3
            }
          ]
        }
      }
    }
  ],
  "configuration_version": "1"
}